%YAML 1.1
%TAG !u! tag:unity3d.com,2011:
--- !u!1045 &1
EditorBuildSettings:
  m_ObjectHideFlags: 0
  serializedVersion: 2
  m_Scenes:
  - enabled: 1
    path: Assets/Scenes/SC_Splash.unity
    guid: 9fc0d4010bbf28b4594072e72b8655ab
  - enabled: 1
    path: Assets/Scenes/SC_Loading.unity
    guid: aa4b6df75e3744fe986315d53c5d4af5
  - enabled: 1
    path: Assets/Scenes/SC_Login.unity
    guid: 61891febc647e4364b2dee40ac50e12c
  - enabled: 1
    path: Assets/Scenes/SC_MainMenu.unity
    guid: 271b46c055a144271940dcbfc635f458
  - enabled: 1
    path: Assets/Scenes/SC_ARMode.unity
    guid: cf675e33dd56446b0a2c2d9a84fceff7
  m_configObjects: {}
